…
$RMSE
# A tibble: 5 × 2
  numComponents  RMSE
          <int> <dbl>
1             1  2.24
2             2  3.29
3             3  5.96
4             4  5.65
5             5  5.81

$FMS
# A tibble: 225 × 4
      X1    X2    X3 numComponents
   <dbl> <dbl> <dbl>         <int>
 1 0.814 0.398 0.842             1
 2 0.775 0.233 0.810             1
 3 0.902 0.468 0.880             1
 4 0.635 0.479 0.710             1
 5 0.820 0.696 0.851             1
 6 0.570 0.647 0.791             1
 7 0.900 0.604 0.863             1
 8 0.902 0.172 0.801             1
 9 0.865 0.551 0.890             1
10 0.910 0.586 0.864             1
# ℹ 215 more rows
…
$RMSE
# A tibble: 5 × 2
  numComponents  RMSE
          <int> <dbl>
1             1  2.24
2             2  3.03
3             3  8.24
4             4  7.28
5             5  8.08

$FMS
# A tibble: 225 × 4
      X1    X2    X3 numComponents
   <dbl> <dbl> <dbl>         <int>
 1 0.808 0.466 0.856             1
 2 0.765 0.285 0.809             1
 3 0.899 0.435 0.882             1
 4 0.629 0.505 0.711             1
 5 0.818 0.741 0.854             1
 6 0.576 0.663 0.791             1
 7 0.892 0.695 0.865             1
 8 0.896 0.375 0.799             1
 9 0.866 0.588 0.888             1
10 0.912 0.511 0.872             1
# ℹ 215 more rows
…
$RMSE
# A tibble: 5 × 2
  numComponents  RMSE
          <int> <dbl>
1             1  2.28
2             2  2.98
3             3 13.7 
4             4 16.8 
5             5 12.1 

$FMS
# A tibble: 225 × 4
      X1    X2    X3 numComponents
   <dbl> <dbl> <dbl>         <int>
 1 0.737 0.423 0.847             1
 2 0.692 0.205 0.801             1
 3 0.891 0.450 0.884             1
 4 0.571 0.447 0.703             1
 5 0.786 0.744 0.854             1
 6 0.519 0.567 0.780             1
 7 0.831 0.587 0.856             1
 8 0.841 0.333 0.786             1
 9 0.828 0.597 0.889             1
10 0.920 0.621 0.881             1
# ℹ 215 more rows
…
$RMSE
# A tibble: 5 × 2
  numComponents  RMSE
          <int> <dbl>
1             1  1.19
2             2  2.56
3             3 10.7 
4             4  6.30
5             5 73.5 

$FMS
# A tibble: 225 × 4
      X1    X2    X3 numComponents
   <dbl> <dbl> <dbl>         <int>
 1 0.980 0.994 0.931             1
 2 0.982 0.995 0.927             1
 3 0.954 0.961 0.911             1
 4 0.920 0.919 0.918             1
 5 0.988 0.992 0.956             1
 6 0.939 0.975 0.837             1
 7 0.959 0.985 0.939             1
 8 0.979 0.991 0.928             1
 9 0.966 0.990 0.715             1
10 0.997 0.996 0.972             1
# ℹ 215 more rows
…
$RMSE
# A tibble: 5 × 2
  numComponents  RMSE
          <int> <dbl>
1             1  1.15
2             2  1.15
3             3  1.21
4             4  1.41
5             5  6.77

$FMS
# A tibble: 225 × 4
      X1    X2    X3 numComponents
   <dbl> <dbl> <dbl>         <int>
 1 0.994 0.997 0.968             1
 2 0.993 0.997 0.955             1
 3 0.943 0.953 0.899             1
 4 0.874 0.877 0.928             1
 5 0.990 0.992 0.968             1
 6 0.960 0.987 0.895             1
 7 0.976 0.993 0.963             1
 8 0.993 0.996 0.940             1
 9 0.982 0.995 0.791             1
10 0.997 0.997 0.960             1
# ℹ 215 more rows
…
$RMSE
# A tibble: 5 × 2
  numComponents  RMSE
          <int> <dbl>
1             1  1.14
2             2  1.14
3             3  1.17
4             4  1.16
5             5  1.16

$FMS
# A tibble: 225 × 4
      X1    X2    X3 numComponents
   <dbl> <dbl> <dbl>         <int>
 1 0.995 0.997 0.971             1
 2 0.995 0.997 0.958             1
 3 0.941 0.951 0.898             1
 4 0.868 0.872 0.927             1
 5 0.990 0.992 0.969             1
 6 0.962 0.988 0.902             1
 7 0.978 0.994 0.965             1
 8 0.993 0.996 0.939             1
 9 0.984 0.995 0.798             1
10 0.997 0.997 0.957             1
# ℹ 215 more rows
…
