…
$FMS
# A tibble: 450 × 4
      X1    X2    X3 numComponents
   <dbl> <dbl> <dbl>         <int>
 1 0.965 0.933 0.934             1
 2 0.941 0.755 0.944             1
 3 0.912 0.802 0.894             1
 4 0.925 0.765 0.918             1
 5 0.864 0.752 0.926             1
 6 0.931 0.842 0.949             1
 7 0.943 0.856 0.894             1
 8 0.957 0.905 0.894             1
 9 0.917 0.880 0.928             1
10 0.956 0.808 0.979             1
# ℹ 440 more rows
…
$FMS
# A tibble: 450 × 4
      X1    X2    X3 numComponents
   <dbl> <dbl> <dbl>         <int>
 1 0.968 0.942 0.934             1
 2 0.948 0.788 0.946             1
 3 0.920 0.828 0.895             1
 4 0.929 0.788 0.919             1
 5 0.869 0.772 0.926             1
 6 0.936 0.866 0.951             1
 7 0.949 0.889 0.894             1
 8 0.961 0.919 0.893             1
 9 0.921 0.901 0.928             1
10 0.961 0.823 0.979             1
# ℹ 440 more rows
…
$FMS
# A tibble: 450 × 4
      X1    X2    X3 numComponents
   <dbl> <dbl> <dbl>         <int>
 1 0.979 0.963 0.938             1
 2 0.969 0.883 0.954             1
 3 0.947 0.906 0.899             1
 4 0.938 0.843 0.922             1
 5 0.893 0.875 0.930             1
 6 0.954 0.937 0.958             1
 7 0.965 0.945 0.894             1
 8 0.974 0.957 0.898             1
 9 0.937 0.947 0.927             1
10 0.976 0.898 0.982             1
# ℹ 440 more rows
…
$FMS
# A tibble: 450 × 4
      X1    X2    X3 numComponents
   <dbl> <dbl> <dbl>         <int>
 1 0.994 0.994 0.975             1
 2 0.994 0.991 0.958             1
 3 0.980 0.984 0.902             1
 4 0.939 0.945 0.966             1
 5 0.969 0.975 0.974             1
 6 0.966 0.987 0.935             1
 7 0.971 0.984 0.933             1
 8 0.994 0.997 0.956             1
 9 0.977 0.993 0.774             1
10 0.996 0.990 0.985             1
# ℹ 440 more rows
…
