…
$RMSE
# A tibble: 5 × 2
  numComponents  RMSE
          <int> <dbl>
1             1  8.88
2             2  9.26
3             3 12.4 
4             4 12.4 
5             5 19.4 

$FMS
# A tibble: 225 × 4
      X1    X2    X3 numComponents
   <dbl> <dbl> <dbl>         <int>
 1 0.965 0.933 0.933             1
 2 0.942 0.752 0.944             1
 3 0.909 0.790 0.893             1
 4 0.930 0.768 0.919             1
 5 0.864 0.701 0.924             1
 6 0.930 0.820 0.950             1
 7 0.943 0.846 0.893             1
 8 0.957 0.902 0.893             1
 9 0.916 0.869 0.928             1
10 0.956 0.796 0.978             1
# ℹ 215 more rows
…
$RMSE
# A tibble: 5 × 2
  numComponents  RMSE
          <int> <dbl>
1             1  8.91
2             2  8.62
3             3 12.1 
4             4 18.3 
5             5 27.5 

$FMS
# A tibble: 225 × 4
      X1    X2    X3 numComponents
   <dbl> <dbl> <dbl>         <int>
 1 0.968 0.941 0.934             1
 2 0.949 0.789 0.946             1
 3 0.920 0.829 0.895             1
 4 0.929 0.784 0.919             1
 5 0.868 0.778 0.926             1
 6 0.935 0.863 0.951             1
 7 0.949 0.886 0.893             1
 8 0.962 0.918 0.893             1
 9 0.921 0.902 0.928             1
10 0.961 0.826 0.979             1
# ℹ 215 more rows
…
$RMSE
# A tibble: 5 × 2
  numComponents  RMSE
          <int> <dbl>
1             1  8.78
2             2  8.60
3             3 27.5 
4             4 11.4 
5             5 30.6 

$FMS
# A tibble: 225 × 4
      X1    X2    X3 numComponents
   <dbl> <dbl> <dbl>         <int>
 1 0.979 0.963 0.938             1
 2 0.969 0.883 0.954             1
 3 0.947 0.905 0.900             1
 4 0.938 0.842 0.922             1
 5 0.892 0.875 0.930             1
 6 0.954 0.936 0.958             1
 7 0.965 0.945 0.894             1
 8 0.974 0.957 0.898             1
 9 0.937 0.947 0.927             1
10 0.976 0.898 0.982             1
# ℹ 215 more rows
…
$RMSE
# A tibble: 5 × 2
  numComponents  RMSE
          <int> <dbl>
1             1  5.60
2             2  8.65
3             3  9.11
4             4  8.55
5             5 35.8 

$FMS
# A tibble: 225 × 4
      X1    X2    X3 numComponents
   <dbl> <dbl> <dbl>         <int>
 1 0.994 0.994 0.975             1
 2 0.994 0.991 0.958             1
 3 0.980 0.984 0.902             1
 4 0.939 0.945 0.966             1
 5 0.969 0.975 0.974             1
 6 0.966 0.987 0.934             1
 7 0.971 0.984 0.933             1
 8 0.994 0.997 0.956             1
 9 0.977 0.993 0.774             1
10 0.996 0.990 0.985             1
# ℹ 215 more rows
…
$RMSE
# A tibble: 5 × 2
  numComponents  RMSE
          <int> <dbl>
1             1  5.22
2             2  5.20
3             3  5.34
4             4  6.35
5             5  6.46

$FMS
# A tibble: 225 × 4
      X1    X2    X3 numComponents
   <dbl> <dbl> <dbl>         <int>
 1 0.993 0.996 0.970             1
 2 0.989 0.996 0.925             1
 3 0.973 0.979 0.927             1
 4 0.932 0.939 0.964             1
 5 0.977 0.979 0.975             1
 6 0.950 0.982 0.899             1
 7 0.947 0.978 0.943             1
 8 0.994 0.997 0.975             1
 9 0.983 0.995 0.724             1
10 0.995 0.996 0.978             1
# ℹ 215 more rows
…
$RMSE
# A tibble: 5 × 2
  numComponents  RMSE
          <int> <dbl>
1             1  5.22
2             2  5.21
3             3  5.20
4             4  5.24
5             5  5.24

$FMS
# A tibble: 225 × 4
      X1    X2    X3 numComponents
   <dbl> <dbl> <dbl>         <int>
 1 0.992 0.996 0.968             1
 2 0.986 0.996 0.914             1
 3 0.971 0.976 0.937             1
 4 0.934 0.938 0.962             1
 5 0.980 0.980 0.974             1
 6 0.941 0.979 0.891             1
 7 0.935 0.975 0.945             1
 8 0.994 0.997 0.979             1
 9 0.983 0.995 0.719             1
10 0.994 0.997 0.975             1
# ℹ 215 more rows
…
