…
$FMS
# A tibble: 450 × 4
      X1    X2    X3 numComponents
   <dbl> <dbl> <dbl>         <int>
 1 0.817 0.515 0.857             1
 2 0.774 0.343 0.808             1
 3 0.899 0.390 0.883             1
 4 0.644 0.549 0.703             1
 5 0.825 0.725 0.854             1
 6 0.583 0.739 0.792             1
 7 0.900 0.732 0.863             1
 8 0.903 0.416 0.802             1
 9 0.866 0.594 0.888             1
10 0.912 0.512 0.866             1
# ℹ 440 more rows
…
$FMS
# A tibble: 450 × 4
      X1    X2    X3 numComponents
   <dbl> <dbl> <dbl>         <int>
 1 0.803 0.472 0.856             1
 2 0.760 0.294 0.810             1
 3 0.898 0.430 0.883             1
 4 0.629 0.514 0.711             1
 5 0.817 0.731 0.854             1
 6 0.571 0.674 0.790             1
 7 0.890 0.698 0.865             1
 8 0.893 0.365 0.799             1
 9 0.860 0.590 0.888             1
10 0.912 0.519 0.871             1
# ℹ 440 more rows
…
$FMS
# A tibble: 450 × 4
      X1    X2    X3 numComponents
   <dbl> <dbl> <dbl>         <int>
 1 0.738 0.422 0.847             1
 2 0.691 0.204 0.800             1
 3 0.891 0.455 0.884             1
 4 0.571 0.444 0.703             1
 5 0.783 0.736 0.855             1
 6 0.518 0.563 0.781             1
 7 0.831 0.576 0.856             1
 8 0.841 0.319 0.786             1
 9 0.828 0.595 0.890             1
10 0.920 0.622 0.881             1
# ℹ 440 more rows
…
$FMS
# A tibble: 450 × 4
      X1    X2    X3 numComponents
   <dbl> <dbl> <dbl>         <int>
 1 0.980 0.994 0.931             1
 2 0.982 0.995 0.927             1
 3 0.954 0.961 0.911             1
 4 0.920 0.919 0.918             1
 5 0.988 0.992 0.956             1
 6 0.939 0.975 0.837             1
 7 0.959 0.985 0.939             1
 8 0.979 0.991 0.928             1
 9 0.966 0.990 0.715             1
10 0.997 0.996 0.972             1
# ℹ 440 more rows
…
